rsc_dft_gu,3|11
rsc_dft_pii,3|10
fin_dft_gu,2|11
fin_dft_pii,2|10
fin_crb_gu,5|11
fin_crb_pii,5|10
fin_trn_gu,6|11
fin_trn_pii,6|10
mkt_dft_gu,1|11
mkt_dft_pii,1|10
mkt_cpn_gu,7|11
mkt_cpn_pii,7|10
prj_alt_gu,8|11
prj_alt_pii,8|10
prj_pgs_gu,9|11
prj_pgs_pii,9|10