Grain,marketing_default
Grain,finance_default
Grain,resources_default
Grain,projects_default
Grain,finance_corebanking
Grain,finance_transactions
Grain,marketing_campaign
Grain,projects_alcatraz
Grain,projects_pegasus
Classification,pii
Classification,gu